…
``` r
#aggregating by main Vendors
ven <- group_by(dat, vendorname)
ven <- summarize(ven, Monies = sum(dollarsobligated))

x <- ven$Monies < 0 
ven$Monies[x] <- NA
ven <- arrange(ven, desc(Monies))

ven
```

    ## # A tibble: 3,255 × 2
    ##                                             vendorname    Monies
    ##                                                  <chr>     <dbl>
    ## 1                                          PFIZER INC. 295600779
    ## 2                   BROOKHAVEN SCIENCE ASSOCIATES, LLC 290494086
    ## 3                          LOCKHEED MARTIN CORPORATION 223505026
    ## 4                            SYSTEMS MADE SIMPLE, INC. 139968271
    ## 5                               MCCANN WORLD GROUP INC 138791456
    ## 6                       TRUE NORTH COMMUNICATIONS INC. 124969987
    ## 7                                   HARRIS CORPORATION 110480721
    ## 8                        TRUE NORTH COMMUNICATIONS INC  93474350
    ## 9               CONTINENTAL SERVICE GROUP INCORPORATED  64600000
    ## 10 SAINT VINCENTS CATHOLIC MEDICAL CENTERS OF NEW YORK  58948433
    ## # ... with 3,245 more rows
…
``` r
#aggregating by main PSC

psc <- group_by(dat, productorservicecode)
psc <- summarize(psc, Monies = sum(dollarsobligated))

x <- psc$Monies < 0 
psc$Monies[x] <- NA
psc <- arrange(psc, desc(Monies))

psc
```

    ## # A tibble: 1,017 × 2
    ##                                                           productorservicecode
    ##                                                                          <chr>
    ## 1                                                  6505: DRUGS AND BIOLOGICALS
    ## 2  M1HA: OPERATION OF GOVERNMENT-OWNED CONTRACTOR-OPERATED (GOCO) R&amp;D FACI
    ## 3                                  R426: SUPPORT- PROFESSIONAL: COMMUNICATIONS
    ## 4                                       R701: SUPPORT- MANAGEMENT: ADVERTISING
    ## 5                                           Q201: MEDICAL- GENERAL HEALTH CARE
    ## 6                                   R705: SUPPORT- MANAGEMENT: DEBT COLLECTION
    ## 7                                              5841: RADAR EQUIPMENT, AIRBORNE
    ## 8                                  5895: MISCELLANEOUS COMMUNICATION EQUIPMENT
    ## 9  D318: IT AND TELECOM- INTEGRATED HARDWARE/SOFTWARE/SERVICES SOLUTIONS, PRED
    ## 10                5821: RADIO AND TELEVISION COMMUNICATION EQUIPMENT, AIRBORNE
    ## # ... with 1,007 more rows, and 1 more variables: Monies <dbl>
…
